%YAML 1.1
%TAG !u! tag:unity3d.com,2011:
--- !u!1001 &1706917087512313643
PrefabInstance:
  m_ObjectHideFlags: 0
  serializedVersion: 2
  m_Modification:
    m_TransformParent: {fileID: 0}
    m_Modifications:
    - target: {fileID: 5851855699689327957, guid: def614ead40625c4fae8c48727a60dfc, type: 3}
      propertyPath: m_RootOrder
      value: 0
      objectReference: {fileID: 0}
    - target: {fileID: 5851855699689327957, guid: def614ead40625c4fae8c48727a60dfc, type: 3}
      propertyPath: m_LocalPosition.x
      value: 0
      objectReference: {fileID: 0}
    - target: {fileID: 5851855699689327957, guid: def614ead40625c4fae8c48727a60dfc, type: 3}
      propertyPath: m_LocalPosition.y
      value: 0
      objectReference: {fileID: 0}
    - target: {fileID: 5851855699689327957, guid: def614ead40625c4fae8c48727a60dfc, type: 3}
      propertyPath: m_LocalPosition.z
      value: 0
      objectReference: {fileID: 0}
    - target: {fileID: 5851855699689327957, guid: def614ead40625c4fae8c48727a60dfc, type: 3}
      propertyPath: m_LocalRotation.w
      value: 1
      objectReference: {fileID: 0}
    - target: {fileID: 5851855699689327957, guid: def614ead40625c4fae8c48727a60dfc, type: 3}
      propertyPath: m_LocalRotation.x
      value: 0
      objectReference: {fileID: 0}
    - target: {fileID: 5851855699689327957, guid: def614ead40625c4fae8c48727a60dfc, type: 3}
      propertyPath: m_LocalRotation.y
      value: 0
      objectReference: {fileID: 0}
    - target: {fileID: 5851855699689327957, guid: def614ead40625c4fae8c48727a60dfc, type: 3}
      propertyPath: m_LocalRotation.z
      value: 0
      objectReference: {fileID: 0}
    - target: {fileID: 5851855699689327957, guid: def614ead40625c4fae8c48727a60dfc, type: 3}
      propertyPath: m_LocalEulerAnglesHint.x
      value: 0
      objectReference: {fileID: 0}
    - target: {fileID: 5851855699689327957, guid: def614ead40625c4fae8c48727a60dfc, type: 3}
      propertyPath: m_LocalEulerAnglesHint.y
      value: 0
      objectReference: {fileID: 0}
    - target: {fileID: 5851855699689327957, guid: def614ead40625c4fae8c48727a60dfc, type: 3}
      propertyPath: m_LocalEulerAnglesHint.z
      value: 0
      objectReference: {fileID: 0}
    - target: {fileID: 6202454575838022686, guid: def614ead40625c4fae8c48727a60dfc, type: 3}
      propertyPath: m_Sprite
      value: 
      objectReference: {fileID: 21300000, guid: f33b0a866394f074eb9c736117211804, type: 3}
    - target: {fileID: 7537839626720334494, guid: def614ead40625c4fae8c48727a60dfc, type: 3}
      propertyPath: m_Name
      value: BkgScrollingObj 1
      objectReference: {fileID: 0}
    m_RemovedComponents: []
  m_SourcePrefab: {fileID: 100100000, guid: def614ead40625c4fae8c48727a60dfc, type: 3}
